{
  "body_zerado": {
    "prefix": "_body:0",
    "body": [
      "body {margin:0; padding: 0;}\n"
    ],
    "description": "Zerar margens e espaçamento do seletor body"
  },
  "hcode_title": {
    "prefix": "_hcode:t",
    "title": [
      "<title>Hcode Treinamentos</title>\n"
    ],
    "description": "Curso da Hcode"
  }
}
